#
héng (horizontal stroke)
⼀:一二三五七夫百上下才不干于千來东画万可哥而再向元两平
#
fāngkuàng (enclosure)
⼞:囗四国因图圆
#
wénzìtóu (top, head)
⼇:亠亱市交高夜京就产变离亮
#
bā (eight)
⼋:八半弟只分并公共其期吃前
#
piĕ (left-falling stroke)
⼃:丿九么生后向年午长每
#
shí (ten)
⼗:十古南卖华直真克
#
rì (the sun)
⽇:日明早时是昨晚星量易
#
yuè (the moon)
⽉:月有望胜朋能期服
#
rén (man, person)
⼈:人入从个以会仚众合拿全
#
dà (big)
⼤:大头太天
#
shù (vertical stroke)
⼁:丨北中且岀由非
#
bĭ (comparison)
⽐:比
#
bái (white)
⽩:白百的
#
kŏu (mouth)
⼝:口古叫听右吗吧哪呢名各只后名可哥和哭噐呴
#
dānrén (man, left side)
⺅:亻信体休你他住们倒但使
#
shŏu (hand)
⼿:手拿
#
yòu (also)
⼜:又双友反取观对难发变
#
zhăozìtóu (paw, claws)
爫:爪受爱愛
#
dāo (knife)
⼑:刀争分色象
#
shízìpáng (eat)
⻠:饣飠饭飯
#
yuē (say)
⽈:曰最者
#
gōng (work)
⼯:工左式
#
zhé (second)
⼄:乙了也以买习书电飞⺠发
#
zĭ (child)
⼦:子学
#
băogài (roof)
⼧:宀字安家它完客定容
#
mù (wood)
⽊:木林本术李果杯机样校槪
#
zŏuzhī (advance)
⻌:辶辵还这进远近䢠连过
#
tŭ (earth)
⼟:土坏坐在去地块场
#
nu (woman)
⼥:女好如她妈要姐妹姓妇
#
shuĭ (water)
⽔:水
#
xiăo (small)
⼩:小少当常定光
#
yu/wáng (jade/king)
⽟:玉王主望现理球
#
diăn (dot)
⼂:丶主之为
#
sāndiănshuĭ (water, left side form)
⺡:氵注河汉江活法没水清汽海
#
mă (horse)
⻢:马
#
fù (father)
⽗:父爸
#
tíshŏu (hand)
⼿:手把找打报拉提接按指
#
ér (child)
儿:儿先元光
#
jī (table)
⼏:几机
#
yáng (sheep)
⽺:羊美养着
#
mén (gate)
⻔:门问间
#
xī (evening)
⼣:夕多名外够
#
xīn (heart)
⼼:心怎必意想思志感念
#
dan'ĕr (seal)
⼙:卩却
#
lìdāo (knife, right side)
⺉:刂到利别前制
#
xiōngzìkuàng (frame)
⼐:凵画
#
wén (script)
⽂:文
#
yángzhìpáng (speech)
讠:讠言谁识认语说话讲读记设
#
shūang'ĕr (double ears)
阝:阝那都院部陆
#
mù (eye)
⽬:目眼省
#
jián (see)
⾒:⻅見观觉
#
xī (west)
⻄:西襾要
#
fāng (square)
⽅:方放房
#
hú (door)
⼾:戶户房
#
zhú (bamboo)
⽵:竹第笑答笔等算
#
shān (mountain)
⼭:山岀岁
#
huō (fire)
⽕:火
#
sìdiăndĭ (fire)
⺣:点照热然
#
hēi (black)
⿊:黑
#
shí (stone)
⽯:石
#
hé (grain)
⽲:禾和利种科
#
tóngzìkuàng ('tóng' frame)
⼌:冂内同
#
yòng (use)
⽤:用
#
lì (strength)
⼒:力男动加办务
#
chăng (factory)
⼚:厂历原
#
tián (field)
⽥:田男界备
#
yŭ (rain)
⾬:雨需
#
căozìtóu (grass)
⾋:艸艹英花茶菜节劳
#
máo (fur, feathers)
⽑:毛
#
shùxīn (heart)
⺖:忄快情忙慢
#
chĭ (step)
⼻:彳很得往行
#
zú (foot)
⾜:足跟路跑
#
zŏu (walk, run)
⾛:走起越
#
